G04 DipTrace 2.4.0.2*
%INUSBIsolator.gbl*%
%MOMM*%
%ADD10C,0.25*%
%ADD13C,0.5*%
%ADD15C,0.3*%
%ADD16C,0.2*%
%ADD17C,0.33*%
%ADD25O,1.5X1.7*%
%ADD26C,3.3*%
%ADD27R,1.6X1.6*%
%ADD28C,1.6*%
%ADD29C,3.5*%
%ADD31R,1.5X1.5*%
%ADD32C,1.5*%
%ADD34C,1.0*%
%FSLAX53Y53*%
G04*
G71*
G90*
G75*
G01*
%LNBottom*%
%LPD*%
X1270Y-2222D2*
D10*
X-1905D1*
X-2955Y-3273D1*
X-6106D1*
Y-1292D1*
X-6128Y-1270D1*
X4604Y5556D2*
D13*
Y-794D1*
X1270D1*
Y-8414D1*
X3334Y-10477D1*
X6509D1*
X7938Y-9049D1*
Y-7461D1*
X1270Y-2222D2*
Y-794D1*
X29528Y3508D2*
X24463D1*
X23495Y2540D1*
Y-3651D1*
Y1746D1*
X22069D1*
X23495Y-3810D2*
Y-3651D1*
X22225Y-9468D2*
Y-10319D1*
X17145D1*
X15557Y-8731D1*
Y-7461D1*
X23495Y-3810D2*
Y-9468D1*
X22225D1*
X7144Y5556D2*
Y-3810D1*
X5398Y-5556D1*
Y-7461D1*
X19211Y-635D2*
Y-6035D1*
X20637Y-7461D1*
X19211Y4445D2*
Y-635D1*
D34*
X1270Y-2222D3*
X4604Y5556D3*
X1270Y-2222D3*
X22069Y1746D3*
X23495Y-3810D3*
X22225Y-9468D3*
X23495Y-3810D3*
X22225Y-9468D3*
X7144Y5556D3*
X19211Y-635D3*
Y4445D3*
Y-635D3*
X-12739Y20658D2*
D16*
X9248D1*
X-12739Y20462D2*
X9248D1*
X-12739Y20265D2*
X9248D1*
X-12739Y20068D2*
X9248D1*
X-12739Y19872D2*
X9248D1*
X-12739Y19675D2*
X9248D1*
X-12739Y19478D2*
X9248D1*
X-12739Y19282D2*
X9248D1*
X-12739Y19085D2*
X9248D1*
X-12739Y18888D2*
X9248D1*
X-12739Y18692D2*
X9248D1*
X-12739Y18495D2*
X9248D1*
X-12739Y18298D2*
X9248D1*
X-12739Y18102D2*
X9248D1*
X-12739Y17905D2*
X9248D1*
X-12739Y17708D2*
X9248D1*
X-12739Y17512D2*
X9248D1*
X-12739Y17315D2*
X9248D1*
X-12739Y17118D2*
X9248D1*
X-12739Y16922D2*
X9248D1*
X-12739Y16725D2*
X9248D1*
X-12739Y16528D2*
X-3399D1*
X-2162D2*
X9248D1*
X-12739Y16332D2*
X-3949D1*
X-1615D2*
X9248D1*
X-12739Y16135D2*
X-4283D1*
X-1278D2*
X9248D1*
X-12739Y15938D2*
X-4533D1*
X-1028D2*
X9248D1*
X-12739Y15742D2*
X-4730D1*
X-831D2*
X9248D1*
X-12739Y15545D2*
X-4893D1*
X-668D2*
X9248D1*
X-12739Y15348D2*
X-5024D1*
X-537D2*
X9248D1*
X-12739Y15152D2*
X-5133D1*
X-428D2*
X9248D1*
X-12739Y14955D2*
X-5221D1*
X-340D2*
X9248D1*
X-12739Y14758D2*
X-5290D1*
X-272D2*
X9248D1*
X-12739Y14562D2*
X-5343D1*
X-222D2*
X9248D1*
X-12739Y14365D2*
X-5377D1*
X-184D2*
X9248D1*
X-12739Y14168D2*
X-5399D1*
X-165D2*
X9248D1*
X-12739Y13972D2*
X-5405D1*
X-159D2*
X9248D1*
X-12739Y13775D2*
X-5396D1*
X-168D2*
X9248D1*
X-12739Y13578D2*
X-5371D1*
X-190D2*
X9248D1*
X-12739Y13382D2*
X-5330D1*
X-231D2*
X9248D1*
X-12739Y13185D2*
X-5274D1*
X-287D2*
X9248D1*
X-12739Y12988D2*
X-5202D1*
X-359D2*
X9248D1*
X-12739Y12792D2*
X-5108D1*
X-453D2*
X9248D1*
X-12739Y12595D2*
X-4996D1*
X-565D2*
X9248D1*
X-12739Y12398D2*
X-4855D1*
X-706D2*
X9248D1*
X-12739Y12202D2*
X-4687D1*
X-875D2*
X9248D1*
X-12739Y12005D2*
X-4480D1*
X-1084D2*
X9248D1*
X-12739Y11808D2*
X-4212D1*
X-1350D2*
X9248D1*
X-12739Y11612D2*
X-3849D1*
X-1715D2*
X9248D1*
X-12739Y11415D2*
X-3146D1*
X-2415D2*
X9248D1*
X-12739Y11218D2*
X9248D1*
X-12739Y11022D2*
X9248D1*
X-12739Y10825D2*
X9248D1*
X-12739Y10628D2*
X9248D1*
X-12739Y10432D2*
X9248D1*
X-12739Y10235D2*
X9248D1*
X-12739Y10038D2*
X9248D1*
X-12739Y9842D2*
X9248D1*
X-12739Y9645D2*
X9248D1*
X-12739Y9448D2*
X9248D1*
X-12739Y9252D2*
X9248D1*
X-12739Y9055D2*
X9248D1*
X-12739Y8858D2*
X9248D1*
X-12739Y8662D2*
X9248D1*
X-12739Y8465D2*
X9248D1*
X-12739Y8268D2*
X9248D1*
X-12739Y8072D2*
X9248D1*
X-12739Y7875D2*
X-9587D1*
X-8090D2*
X9248D1*
X-12739Y7678D2*
X-9968D1*
X-7709D2*
X9248D1*
X-12739Y7482D2*
X-10218D1*
X-7456D2*
X9248D1*
X-12739Y7285D2*
X-10405D1*
X-7272D2*
X9248D1*
X-12739Y7088D2*
X-10549D1*
X-7125D2*
X9248D1*
X-12739Y6892D2*
X-10662D1*
X-7015D2*
X9248D1*
X-12739Y6695D2*
X-10746D1*
X-6931D2*
X9248D1*
X-12739Y6498D2*
X-10805D1*
X-6868D2*
X9248D1*
X-12739Y6302D2*
X-10846D1*
X-6828D2*
X6692D1*
X7597D2*
X9248D1*
X-12739Y6105D2*
X-10868D1*
X-6809D2*
X6460D1*
X7828D2*
X9248D1*
X-12739Y5908D2*
X-10868D1*
X-6809D2*
X6338D1*
X7950D2*
X9248D1*
X-12739Y5712D2*
X-10849D1*
X-6828D2*
X6276D1*
X8013D2*
X9248D1*
X-12739Y5515D2*
X-10812D1*
X-6865D2*
X6263D1*
X8025D2*
X9248D1*
X-12739Y5318D2*
X-10749D1*
X-6925D2*
X6295D1*
X7991D2*
X9248D1*
X-12739Y5122D2*
X-10668D1*
X-7009D2*
X6379D1*
X7907D2*
X9248D1*
X-12739Y4925D2*
X-10558D1*
X-7118D2*
X6513D1*
X7775D2*
X9248D1*
X-12739Y4728D2*
X-10418D1*
X-7259D2*
X6513D1*
X7775D2*
X9248D1*
X-12739Y4532D2*
X-10233D1*
X-7443D2*
X6513D1*
X7775D2*
X9248D1*
X-12739Y4335D2*
X-9987D1*
X-7687D2*
X6513D1*
X7775D2*
X9248D1*
X-12739Y4138D2*
X-9621D1*
X-8056D2*
X6513D1*
X7775D2*
X9248D1*
X-12739Y3942D2*
X6513D1*
X7775D2*
X9248D1*
X-12739Y3745D2*
X6513D1*
X7775D2*
X9248D1*
X-12739Y3548D2*
X6513D1*
X7775D2*
X9248D1*
X-12739Y3352D2*
X6513D1*
X7775D2*
X9248D1*
X-12739Y3155D2*
X6513D1*
X7775D2*
X9248D1*
X-12739Y2958D2*
X6513D1*
X7775D2*
X9248D1*
X-12739Y2762D2*
X6513D1*
X7775D2*
X9248D1*
X-12739Y2565D2*
X6513D1*
X7775D2*
X9248D1*
X-12739Y2368D2*
X-6546D1*
X-5712D2*
X-4546D1*
X-3712D2*
X6513D1*
X7775D2*
X9248D1*
X-12739Y2172D2*
X-6874D1*
X-5381D2*
X-4874D1*
X-3381D2*
X6513D1*
X7775D2*
X9248D1*
X-12739Y1975D2*
X-7052D1*
X-5203D2*
X-5052D1*
X-3203D2*
X6513D1*
X7775D2*
X9248D1*
X-12739Y1778D2*
X-7165D1*
X-3090D2*
X6513D1*
X7775D2*
X9248D1*
X-12739Y1582D2*
X-7230D1*
X-3025D2*
X6513D1*
X7775D2*
X9248D1*
X-12739Y1385D2*
X-7258D1*
X-2997D2*
X6513D1*
X7775D2*
X9248D1*
X-12739Y1188D2*
X-7258D1*
X-2997D2*
X6513D1*
X7775D2*
X9248D1*
X-12739Y992D2*
X-7252D1*
X-3006D2*
X6513D1*
X7775D2*
X9248D1*
X-12739Y795D2*
X-7208D1*
X-3047D2*
X6513D1*
X7775D2*
X9248D1*
X-12739Y598D2*
X-7124D1*
X-3131D2*
X6513D1*
X7775D2*
X9248D1*
X-12739Y402D2*
X-6987D1*
X-5268D2*
X-4987D1*
X-3268D2*
X6513D1*
X7775D2*
X9248D1*
X-12739Y205D2*
X-6765D1*
X-5490D2*
X-4765D1*
X-3490D2*
X6513D1*
X7775D2*
X9248D1*
X-12739Y8D2*
X6513D1*
X7775D2*
X9248D1*
X-12739Y-188D2*
X-6668D1*
X-5587D2*
X-4680D1*
X-3575D2*
X6513D1*
X7775D2*
X9248D1*
X-12739Y-385D2*
X-6933D1*
X-5322D2*
X-4865D1*
X-3393D2*
X6513D1*
X7775D2*
X9248D1*
X-12739Y-582D2*
X-7090D1*
X-5165D2*
X-5040D1*
X-3215D2*
X6513D1*
X7775D2*
X9248D1*
X-12739Y-778D2*
X-7190D1*
X-3047D2*
X6513D1*
X7775D2*
X9248D1*
X-12739Y-975D2*
X-7243D1*
X-2997D2*
X6513D1*
X7775D2*
X9248D1*
X-12739Y-1172D2*
X-7258D1*
X-2997D2*
X6513D1*
X7775D2*
X9248D1*
X-12739Y-1368D2*
X-7258D1*
X-2997D2*
X6513D1*
X7775D2*
X9248D1*
X-12739Y-1565D2*
X-7243D1*
X-2997D2*
X6513D1*
X7775D2*
X9248D1*
X-12739Y-1762D2*
X-7190D1*
X-3047D2*
X6513D1*
X7775D2*
X9248D1*
X-12739Y-1958D2*
X-7090D1*
X-5165D2*
X-5040D1*
X-3215D2*
X6513D1*
X7775D2*
X9248D1*
X-12739Y-2155D2*
X-6937D1*
X-5322D2*
X-4865D1*
X-3393D2*
X6513D1*
X7775D2*
X9248D1*
X-12739Y-2352D2*
X-6671D1*
X-5587D2*
X-4680D1*
X-3575D2*
X6513D1*
X7775D2*
X9248D1*
X-12739Y-2548D2*
X6513D1*
X7775D2*
X9248D1*
X-12739Y-2745D2*
X6513D1*
X7775D2*
X9248D1*
X-12739Y-2942D2*
X6513D1*
X7775D2*
X9248D1*
X-12739Y-3138D2*
X6513D1*
X7775D2*
X9248D1*
X-12739Y-3335D2*
X6513D1*
X7775D2*
X9248D1*
X-12739Y-3532D2*
X6513D1*
X7775D2*
X9248D1*
X-12739Y-3728D2*
X6342D1*
X7775D2*
X9248D1*
X-12739Y-3925D2*
X6145D1*
X7766D2*
X9248D1*
X-12739Y-4122D2*
X-9465D1*
X-8212D2*
X5948D1*
X7691D2*
X9248D1*
X-12739Y-4318D2*
X-9899D1*
X-7778D2*
X5751D1*
X7519D2*
X9248D1*
X-12739Y-4515D2*
X-10171D1*
X-7506D2*
X5554D1*
X7325D2*
X9248D1*
X-12739Y-4712D2*
X-10368D1*
X-7306D2*
X5357D1*
X7128D2*
X9248D1*
X-12739Y-4908D2*
X-10521D1*
X-7156D2*
X5160D1*
X6932D2*
X9248D1*
X-12739Y-5105D2*
X-10640D1*
X-7037D2*
X4963D1*
X6735D2*
X9248D1*
X-12739Y-5302D2*
X-10730D1*
X-6947D2*
X4823D1*
X6538D2*
X9248D1*
X-12739Y-5498D2*
X-10796D1*
X-6881D2*
X4770D1*
X6341D2*
X9248D1*
X-12739Y-5695D2*
X-10840D1*
X-6837D2*
X4767D1*
X6144D2*
X9248D1*
X-12739Y-5892D2*
X-10865D1*
X-6812D2*
X4767D1*
X6028D2*
X9248D1*
X-12739Y-6088D2*
X-10868D1*
X-6806D2*
X4767D1*
X6028D2*
X9248D1*
X-12739Y-6285D2*
X-10855D1*
X-6822D2*
X4767D1*
X6028D2*
X9248D1*
X-12739Y-6482D2*
X-10821D1*
X-6856D2*
X4267D1*
X6528D2*
X7392D1*
X8482D2*
X9248D1*
X-12739Y-6678D2*
X-10765D1*
X-6909D2*
X4267D1*
X6528D2*
X7129D1*
X8747D2*
X9248D1*
X-12739Y-6875D2*
X-10690D1*
X-6987D2*
X4267D1*
X6528D2*
X6973D1*
X8903D2*
X9248D1*
X-12739Y-7072D2*
X-10583D1*
X-7090D2*
X4267D1*
X6528D2*
X6876D1*
X8997D2*
X9248D1*
X-12739Y-7268D2*
X-10452D1*
X-7225D2*
X4267D1*
X6528D2*
X6823D1*
X9053D2*
X9248D1*
X-12739Y-7465D2*
X-10277D1*
X-7397D2*
X4267D1*
X6528D2*
X6807D1*
X9069D2*
X9248D1*
X-12739Y-7662D2*
X-10049D1*
X-7628D2*
X4267D1*
X6528D2*
X6823D1*
X9050D2*
X9248D1*
X-12739Y-7858D2*
X-9718D1*
X-7956D2*
X4267D1*
X6528D2*
X6879D1*
X8997D2*
X9248D1*
X-12739Y-8055D2*
X4267D1*
X6528D2*
X6979D1*
X8897D2*
X9248D1*
X-12739Y-8252D2*
X4267D1*
X6528D2*
X7135D1*
X8738D2*
X9248D1*
X-12739Y-8448D2*
X4267D1*
X6528D2*
X7407D1*
X8469D2*
X9248D1*
X-12739Y-8645D2*
X9248D1*
X-12739Y-8842D2*
X9248D1*
X-12739Y-9038D2*
X9248D1*
X-12739Y-9235D2*
X9248D1*
X-12739Y-9432D2*
X9248D1*
X-12739Y-9628D2*
X9248D1*
X-12739Y-9825D2*
X9248D1*
X-12739Y-10022D2*
X9248D1*
X-12739Y-10218D2*
X9248D1*
X-12739Y-10415D2*
X9248D1*
X-12739Y-10612D2*
X9248D1*
X-12739Y-10808D2*
X9248D1*
X-12739Y-11005D2*
X9248D1*
X-12739Y-11202D2*
X9248D1*
X-12739Y-11398D2*
X9248D1*
X-12739Y-11595D2*
X-3780D1*
X-1778D2*
X9248D1*
X-12739Y-11792D2*
X-4168D1*
X-1390D2*
X9248D1*
X-12739Y-11988D2*
X-4446D1*
X-1115D2*
X9248D1*
X-12739Y-12185D2*
X-4658D1*
X-900D2*
X9248D1*
X-12739Y-12382D2*
X-4833D1*
X-725D2*
X9248D1*
X-12739Y-12578D2*
X-4977D1*
X-584D2*
X9248D1*
X-12739Y-12775D2*
X-5093D1*
X-465D2*
X9248D1*
X-12739Y-12972D2*
X-5190D1*
X-372D2*
X9248D1*
X-12739Y-13168D2*
X-5265D1*
X-297D2*
X9248D1*
X-12739Y-13365D2*
X-5324D1*
X-237D2*
X9248D1*
X-12739Y-13562D2*
X-5365D1*
X-197D2*
X9248D1*
X-12739Y-13758D2*
X-5390D1*
X-168D2*
X9248D1*
X-12739Y-13955D2*
X-5402D1*
X-156D2*
X9248D1*
X-12739Y-14152D2*
X-5399D1*
X-162D2*
X9248D1*
X-12739Y-14348D2*
X-5380D1*
X-181D2*
X9248D1*
X-12739Y-14545D2*
X-5346D1*
X-212D2*
X9248D1*
X-12739Y-14742D2*
X-5296D1*
X-262D2*
X9248D1*
X-12739Y-14938D2*
X-5230D1*
X-331D2*
X9248D1*
X-12739Y-15135D2*
X-5146D1*
X-415D2*
X9248D1*
X-12739Y-15332D2*
X-5040D1*
X-518D2*
X9248D1*
X-12739Y-15528D2*
X-4912D1*
X-650D2*
X9248D1*
X-12739Y-15725D2*
X-4755D1*
X-806D2*
X9248D1*
X-12739Y-15922D2*
X-4562D1*
X-997D2*
X9248D1*
X-12739Y-16118D2*
X-4321D1*
X-1240D2*
X9248D1*
X-12739Y-16315D2*
X-4002D1*
X-1559D2*
X9248D1*
X-12739Y-16512D2*
X-3505D1*
X-2056D2*
X9248D1*
X-12739Y-16708D2*
X9248D1*
X-12739Y-16905D2*
X9248D1*
X-12739Y-17102D2*
X9248D1*
X-12739Y-17298D2*
X9248D1*
X-12739Y-17495D2*
X9248D1*
X-12739Y-17692D2*
X9248D1*
X-12739Y-17888D2*
X9248D1*
X-12739Y-18085D2*
X9248D1*
X-12739Y-18282D2*
X9248D1*
X-12739Y-18478D2*
X9248D1*
X-12739Y-18675D2*
X9248D1*
X-12739Y-18872D2*
X9248D1*
X-12739Y-19068D2*
X9248D1*
X-12739Y-19265D2*
X9248D1*
X-12739Y-19462D2*
X9248D1*
X-12739Y-19658D2*
X9248D1*
X-12739Y-19855D2*
X9248D1*
X-12739Y-20052D2*
X9248D1*
X-12739Y-20248D2*
X9248D1*
X-12739Y-20445D2*
X9248D1*
X-12739Y-20642D2*
X9248D1*
X-12739Y-20838D2*
X9248D1*
X-180Y13895D2*
X-195Y13696D1*
X-226Y13498D1*
X-271Y13303D1*
X-332Y13113D1*
X-407Y12927D1*
X-496Y12748D1*
X-598Y12577D1*
X-713Y12413D1*
X-841Y12259D1*
X-980Y12115D1*
X-1129Y11983D1*
X-1289Y11862D1*
X-1457Y11754D1*
X-1633Y11659D1*
X-1815Y11577D1*
X-2004Y11510D1*
X-2197Y11458D1*
X-2393Y11421D1*
X-2592Y11399D1*
X-2792Y11392D1*
X-2991Y11400D1*
X-3190Y11424D1*
X-3386Y11463D1*
X-3579Y11517D1*
X-3767Y11585D1*
X-3949Y11668D1*
X-4124Y11765D1*
X-4291Y11874D1*
X-4449Y11996D1*
X-4598Y12130D1*
X-4735Y12275D1*
X-4862Y12430D1*
X-4976Y12595D1*
X-5077Y12767D1*
X-5164Y12947D1*
X-5237Y13133D1*
X-5296Y13324D1*
X-5340Y13519D1*
X-5369Y13717D1*
X-5383Y13916D1*
X-5381Y14116D1*
X-5365Y14316D1*
X-5332Y14513D1*
X-5285Y14707D1*
X-5223Y14897D1*
X-5147Y15082D1*
X-5056Y15260D1*
X-4952Y15431D1*
X-4836Y15594D1*
X-4707Y15747D1*
X-4567Y15889D1*
X-4416Y16021D1*
X-4256Y16140D1*
X-4087Y16247D1*
X-3910Y16341D1*
X-3727Y16420D1*
X-3538Y16486D1*
X-3344Y16537D1*
X-3148Y16572D1*
X-2949Y16593D1*
X-2749Y16598D1*
X-2549Y16588D1*
X-2351Y16563D1*
X-2155Y16522D1*
X-1963Y16466D1*
X-1776Y16396D1*
X-1594Y16312D1*
X-1420Y16214D1*
X-1254Y16103D1*
X-1096Y15980D1*
X-949Y15845D1*
X-813Y15699D1*
X-688Y15543D1*
X-575Y15377D1*
X-475Y15204D1*
X-389Y15023D1*
X-318Y14837D1*
X-260Y14645D1*
X-218Y14450D1*
X-190Y14252D1*
X-178Y13995D1*
X-180Y13895D1*
X-179Y-14106D2*
X-194Y-14305D1*
X-225Y-14503D1*
X-270Y-14698D1*
X-331Y-14888D1*
X-406Y-15074D1*
X-495Y-15253D1*
X-597Y-15424D1*
X-712Y-15588D1*
X-840Y-15742D1*
X-979Y-15886D1*
X-1128Y-16018D1*
X-1288Y-16139D1*
X-1456Y-16247D1*
X-1632Y-16342D1*
X-1814Y-16424D1*
X-2003Y-16491D1*
X-2196Y-16543D1*
X-2392Y-16580D1*
X-2591Y-16602D1*
X-2791Y-16609D1*
X-2990Y-16601D1*
X-3189Y-16577D1*
X-3385Y-16538D1*
X-3578Y-16484D1*
X-3766Y-16416D1*
X-3948Y-16333D1*
X-4123Y-16236D1*
X-4290Y-16127D1*
X-4448Y-16005D1*
X-4597Y-15871D1*
X-4734Y-15726D1*
X-4861Y-15571D1*
X-4975Y-15406D1*
X-5076Y-15234D1*
X-5163Y-15054D1*
X-5236Y-14868D1*
X-5295Y-14677D1*
X-5339Y-14482D1*
X-5368Y-14284D1*
X-5382Y-14085D1*
X-5381Y-13885D1*
X-5364Y-13685D1*
X-5331Y-13488D1*
X-5284Y-13294D1*
X-5222Y-13104D1*
X-5146Y-12919D1*
X-5055Y-12741D1*
X-4951Y-12570D1*
X-4835Y-12407D1*
X-4706Y-12254D1*
X-4566Y-12112D1*
X-4415Y-11980D1*
X-4255Y-11861D1*
X-4086Y-11754D1*
X-3909Y-11660D1*
X-3726Y-11581D1*
X-3537Y-11515D1*
X-3343Y-11464D1*
X-3147Y-11429D1*
X-2948Y-11408D1*
X-2748Y-11403D1*
X-2548Y-11413D1*
X-2350Y-11438D1*
X-2154Y-11479D1*
X-1962Y-11534D1*
X-1775Y-11605D1*
X-1593Y-11689D1*
X-1419Y-11787D1*
X-1253Y-11898D1*
X-1095Y-12021D1*
X-948Y-12156D1*
X-812Y-12302D1*
X-687Y-12458D1*
X-574Y-12624D1*
X-474Y-12797D1*
X-388Y-12978D1*
X-317Y-13164D1*
X-259Y-13356D1*
X-217Y-13551D1*
X-189Y-13749D1*
X-177Y-14006D1*
X-179Y-14106D1*
X-5124Y-697D2*
X-4703Y-228D1*
X-4627Y-164D1*
X-4536Y-123D1*
X-4434Y-108D1*
X-3822D1*
X-3723Y-122D1*
X-3632Y-162D1*
X-3553Y-228D1*
X-3109Y-722D1*
X-3053Y-805D1*
X-3018Y-927D1*
X-3016Y-1576D1*
X-3030Y-1675D1*
X-3085Y-1789D1*
X-3553Y-2312D1*
X-3629Y-2376D1*
X-3720Y-2417D1*
X-3822Y-2432D1*
X-4434D1*
X-4533Y-2418D1*
X-4624Y-2378D1*
X-4703Y-2312D1*
X-5122Y-1846D1*
X-5206Y-1992D1*
X-5291Y-2103D1*
X-5390Y-2202D1*
X-5500Y-2288D1*
X-5621Y-2360D1*
X-5749Y-2416D1*
X-5883Y-2455D1*
X-6021Y-2477D1*
X-6161Y-2482D1*
X-6300Y-2469D1*
X-6437Y-2438D1*
X-6569Y-2391D1*
X-6693Y-2328D1*
X-6809Y-2249D1*
X-6914Y-2156D1*
X-7007Y-2052D1*
X-7085Y-1936D1*
X-7149Y-1811D1*
X-7196Y-1679D1*
X-7226Y-1543D1*
X-7239Y-1404D1*
X-7238Y-1104D1*
X-7221Y-965D1*
X-7186Y-829D1*
X-7135Y-699D1*
X-7068Y-576D1*
X-6986Y-463D1*
X-6890Y-361D1*
X-6783Y-271D1*
X-6665Y-196D1*
X-6538Y-137D1*
X-6405Y-93D1*
X-6268Y-67D1*
X-6128Y-58D1*
X-5988Y-67D1*
X-5851Y-93D1*
X-5718Y-136D1*
X-5591Y-196D1*
X-5473Y-271D1*
X-5366Y-360D1*
X-5270Y-463D1*
X-5188Y-576D1*
X-5123Y-695D1*
X-5128Y1816D2*
X-5023Y1990D1*
X-4890Y2139D1*
X-4733Y2263D1*
X-4557Y2356D1*
X-4366Y2416D1*
X-4168Y2441D1*
X-3969Y2430D1*
X-3774Y2384D1*
X-3591Y2304D1*
X-3426Y2192D1*
X-3283Y2053D1*
X-3167Y1890D1*
X-3083Y1709D1*
X-3032Y1516D1*
X-3016Y1330D1*
X-3019Y1130D1*
X-3020Y1030D1*
X-3056Y834D1*
X-3126Y647D1*
X-3229Y475D1*
X-3361Y325D1*
X-3517Y201D1*
X-3693Y106D1*
X-3883Y45D1*
X-4081Y19D1*
X-4281Y28D1*
X-4475Y74D1*
X-4659Y153D1*
X-4825Y263D1*
X-4969Y402D1*
X-5085Y564D1*
X-5128Y644D1*
X-5229Y475D1*
X-5361Y325D1*
X-5517Y201D1*
X-5693Y106D1*
X-5883Y45D1*
X-6081Y19D1*
X-6281Y28D1*
X-6475Y74D1*
X-6659Y153D1*
X-6825Y263D1*
X-6969Y402D1*
X-7085Y564D1*
X-7171Y745D1*
X-7223Y937D1*
X-7240Y1140D1*
X-7237Y1330D1*
X-7235Y1436D1*
X-7198Y1633D1*
X-7127Y1819D1*
X-7023Y1990D1*
X-6890Y2139D1*
X-6733Y2263D1*
X-6557Y2356D1*
X-6366Y2416D1*
X-6168Y2441D1*
X-5969Y2430D1*
X-5774Y2384D1*
X-5591Y2304D1*
X-5426Y2192D1*
X-5283Y2053D1*
X-5167Y1890D1*
X-5128Y1815D1*
X-6828Y5900D2*
X-6848Y5701D1*
X-6888Y5505D1*
X-6946Y5314D1*
X-7024Y5130D1*
X-7119Y4954D1*
X-7231Y4788D1*
X-7360Y4635D1*
X-7502Y4495D1*
X-7658Y4370D1*
X-7826Y4261D1*
X-8003Y4169D1*
X-8189Y4095D1*
X-8382Y4040D1*
X-8578Y4005D1*
X-8778Y3989D1*
X-8977Y3993D1*
X-9176Y4016D1*
X-9371Y4060D1*
X-9561Y4122D1*
X-9744Y4203D1*
X-9918Y4302D1*
X-10081Y4418D1*
X-10232Y4549D1*
X-10369Y4694D1*
X-10491Y4853D1*
X-10596Y5022D1*
X-10685Y5202D1*
X-10755Y5389D1*
X-10806Y5582D1*
X-10838Y5779D1*
X-10850Y5979D1*
X-10842Y6179D1*
X-10814Y6377D1*
X-10767Y6571D1*
X-10701Y6760D1*
X-10616Y6941D1*
X-10514Y7113D1*
X-10396Y7274D1*
X-10261Y7422D1*
X-10113Y7556D1*
X-9953Y7675D1*
X-9781Y7777D1*
X-9600Y7862D1*
X-9411Y7928D1*
X-9217Y7976D1*
X-9019Y8004D1*
X-8819Y8012D1*
X-8620Y8000D1*
X-8422Y7968D1*
X-8229Y7917D1*
X-8042Y7848D1*
X-7862Y7759D1*
X-7692Y7654D1*
X-7534Y7532D1*
X-7388Y7395D1*
X-7257Y7244D1*
X-7141Y7081D1*
X-7042Y6908D1*
X-6961Y6725D1*
X-6898Y6535D1*
X-6855Y6340D1*
X-6831Y6142D1*
X-6828Y5900D1*
Y-6140D2*
X-6848Y-6339D1*
X-6888Y-6535D1*
X-6946Y-6726D1*
X-7024Y-6910D1*
X-7119Y-7086D1*
X-7231Y-7252D1*
X-7360Y-7405D1*
X-7502Y-7545D1*
X-7658Y-7670D1*
X-7826Y-7779D1*
X-8003Y-7871D1*
X-8189Y-7945D1*
X-8382Y-8000D1*
X-8578Y-8035D1*
X-8778Y-8051D1*
X-8977Y-8047D1*
X-9176Y-8024D1*
X-9371Y-7980D1*
X-9561Y-7918D1*
X-9744Y-7837D1*
X-9918Y-7738D1*
X-10081Y-7622D1*
X-10232Y-7491D1*
X-10369Y-7346D1*
X-10491Y-7187D1*
X-10596Y-7018D1*
X-10685Y-6838D1*
X-10755Y-6651D1*
X-10806Y-6458D1*
X-10838Y-6261D1*
X-10850Y-6061D1*
X-10842Y-5861D1*
X-10814Y-5663D1*
X-10767Y-5469D1*
X-10701Y-5280D1*
X-10616Y-5099D1*
X-10514Y-4927D1*
X-10396Y-4767D1*
X-10261Y-4618D1*
X-10113Y-4484D1*
X-9953Y-4365D1*
X-9781Y-4263D1*
X-9600Y-4178D1*
X-9411Y-4112D1*
X-9217Y-4064D1*
X-9019Y-4036D1*
X-8819Y-4028D1*
X-8620Y-4040D1*
X-8422Y-4072D1*
X-8229Y-4122D1*
X-8042Y-4192D1*
X-7862Y-4281D1*
X-7692Y-4386D1*
X-7534Y-4508D1*
X-7388Y-4645D1*
X-7257Y-4796D1*
X-7141Y-4959D1*
X-7042Y-5132D1*
X-6961Y-5315D1*
X-6898Y-5505D1*
X-6855Y-5700D1*
X-6831Y-5898D1*
X-6828Y-6140D1*
X4386Y-6349D2*
X4789D1*
X4785Y-5761D1*
Y-5556D1*
X4794Y-5457D1*
X4818Y-5360D1*
X4858Y-5268D1*
X4912Y-5184D1*
X4965Y-5124D1*
X6531Y-3557D1*
X6532Y4949D1*
X6427Y5077D1*
X6377Y5163D1*
X6336Y5255D1*
X6307Y5350D1*
X6288Y5448D1*
X6282Y5548D1*
X6287Y5648D1*
X6303Y5747D1*
X6331Y5843D1*
X6369Y5935D1*
X6418Y6022D1*
X6477Y6103D1*
X6545Y6176D1*
X6621Y6241D1*
X6703Y6297D1*
X6792Y6343D1*
X6886Y6379D1*
X6983Y6403D1*
X7082Y6416D1*
X7182Y6417D1*
X7281Y6407D1*
X7379Y6386D1*
X7473Y6353D1*
X7563Y6309D1*
X7647Y6256D1*
X7725Y6193D1*
X7795Y6121D1*
X7856Y6042D1*
X7907Y5956D1*
X7948Y5865D1*
X7979Y5770D1*
X7998Y5672D1*
X8006Y5556D1*
X8000Y5456D1*
X7983Y5358D1*
X7954Y5262D1*
X7915Y5170D1*
X7865Y5084D1*
X7756Y4951D1*
Y-3810D1*
X7748Y-3910D1*
X7723Y-4006D1*
X7684Y-4098D1*
X7630Y-4182D1*
X7577Y-4243D1*
X6010Y-5809D1*
Y-6347D1*
X6510Y-6349D1*
Y-8573D1*
X4285D1*
Y-6349D1*
X4386D1*
X9049Y-7481D2*
X9038Y-7621D1*
X9009Y-7758D1*
X8964Y-7890D1*
X8902Y-8015D1*
X8824Y-8132D1*
X8733Y-8238D1*
X8629Y-8332D1*
X8515Y-8412D1*
X8391Y-8477D1*
X8260Y-8526D1*
X8123Y-8558D1*
X7984Y-8572D1*
X7844Y-8569D1*
X7706Y-8549D1*
X7571Y-8511D1*
X7442Y-8457D1*
X7321Y-8387D1*
X7210Y-8302D1*
X7110Y-8204D1*
X7023Y-8094D1*
X6951Y-7974D1*
X6894Y-7847D1*
X6854Y-7713D1*
X6831Y-7575D1*
X6826Y-7435D1*
X6838Y-7295D1*
X6867Y-7159D1*
X6914Y-7027D1*
X6977Y-6902D1*
X7055Y-6785D1*
X7146Y-6680D1*
X7251Y-6587D1*
X7366Y-6507D1*
X7490Y-6443D1*
X7622Y-6395D1*
X7758Y-6364D1*
X7897Y-6350D1*
X8037Y-6354D1*
X8175Y-6375D1*
X8310Y-6413D1*
X8439Y-6469D1*
X8559Y-6539D1*
X8670Y-6625D1*
X8769Y-6723D1*
X8855Y-6834D1*
X8927Y-6954D1*
X8983Y-7082D1*
X9022Y-7216D1*
X9044Y-7354D1*
X9049Y-7481D1*
X9166Y20855D2*
X-12759D1*
Y-20855D1*
X9266D1*
Y20855D1*
X9166D1*
X-6128Y-59D2*
D17*
Y-2482D1*
X-7240Y-1270D2*
X-6128D1*
X7938Y-6350D2*
Y-8573D1*
X6826Y-7461D2*
X9049D1*
X14309Y20508D2*
D15*
X35223D1*
X14309Y20212D2*
X35223D1*
X14309Y19915D2*
X35223D1*
X14309Y19618D2*
X35223D1*
X14309Y19322D2*
X35223D1*
X14309Y19025D2*
X35223D1*
X14309Y18728D2*
X35223D1*
X14309Y18432D2*
X35223D1*
X14309Y18135D2*
X35223D1*
X14309Y17838D2*
X35223D1*
X14309Y17542D2*
X35223D1*
X14309Y17245D2*
X35223D1*
X14309Y16948D2*
X35223D1*
X14309Y16652D2*
X35223D1*
X14309Y16355D2*
X23987D1*
X26456D2*
X35223D1*
X14309Y16058D2*
X23528D1*
X26916D2*
X35223D1*
X14309Y15762D2*
X23218D1*
X27230D2*
X35223D1*
X14309Y15465D2*
X22984D1*
X27460D2*
X35223D1*
X14309Y15168D2*
X22815D1*
X27628D2*
X35223D1*
X14309Y14872D2*
X22689D1*
X27755D2*
X35223D1*
X14309Y14575D2*
X22604D1*
X27839D2*
X35223D1*
X14309Y14278D2*
X22553D1*
X27891D2*
X35223D1*
X14309Y13982D2*
X22539D1*
X27905D2*
X35223D1*
X14309Y13685D2*
X22557D1*
X27886D2*
X35223D1*
X14309Y13388D2*
X22609D1*
X27835D2*
X35223D1*
X14309Y13092D2*
X22698D1*
X27750D2*
X35223D1*
X14309Y12795D2*
X22825D1*
X27619D2*
X35223D1*
X14309Y12498D2*
X22998D1*
X27445D2*
X35223D1*
X14309Y12202D2*
X23232D1*
X27211D2*
X35223D1*
X14309Y11905D2*
X23551D1*
X26892D2*
X35223D1*
X14309Y11608D2*
X24025D1*
X26419D2*
X35223D1*
X14309Y11312D2*
X35223D1*
X14309Y11015D2*
X35223D1*
X14309Y10718D2*
X35223D1*
X14309Y10422D2*
X35223D1*
X14309Y10125D2*
X35223D1*
X14309Y9828D2*
X35223D1*
X14309Y9532D2*
X35223D1*
X14309Y9235D2*
X35223D1*
X14309Y8938D2*
X35223D1*
X14309Y8642D2*
X31553D1*
X32920D2*
X35223D1*
X14309Y8345D2*
X30957D1*
X33520D2*
X35223D1*
X14309Y8048D2*
X30620D1*
X33858D2*
X35223D1*
X14309Y7752D2*
X30385D1*
X34088D2*
X35223D1*
X14309Y7455D2*
X30226D1*
X34247D2*
X35223D1*
X14309Y7158D2*
X30123D1*
X34355D2*
X35223D1*
X14309Y6862D2*
X30062D1*
X34416D2*
X35223D1*
X14309Y6565D2*
X30043D1*
X34435D2*
X35223D1*
X14309Y6268D2*
X30062D1*
X34411D2*
X35223D1*
X14309Y5972D2*
X30128D1*
X34345D2*
X35223D1*
X14309Y5675D2*
X30240D1*
X34238D2*
X35223D1*
X14309Y5378D2*
X30404D1*
X34069D2*
X35223D1*
X14309Y5082D2*
X18521D1*
X19899D2*
X30643D1*
X33835D2*
X35223D1*
X14309Y4785D2*
X18329D1*
X20091D2*
X30990D1*
X33483D2*
X35223D1*
X14309Y4488D2*
X18268D1*
X20156D2*
X28778D1*
X30277D2*
X31637D1*
X32836D2*
X35223D1*
X14309Y4192D2*
X18301D1*
X20119D2*
X28492D1*
X30563D2*
X35223D1*
X14309Y3895D2*
X18446D1*
X19974D2*
X28346D1*
X30708D2*
X35223D1*
X14309Y3598D2*
X18517D1*
X19908D2*
X28285D1*
X30769D2*
X35223D1*
X14309Y3302D2*
X18517D1*
X19908D2*
X28300D1*
X30755D2*
X35223D1*
X14309Y3005D2*
X18517D1*
X19908D2*
X28389D1*
X30666D2*
X35223D1*
X14309Y2708D2*
X18517D1*
X19908D2*
X28581D1*
X30474D2*
X35223D1*
X14309Y2412D2*
X18517D1*
X19908D2*
X28970D1*
X30085D2*
X35223D1*
X14309Y2115D2*
X18517D1*
X19908D2*
X28998D1*
X30061D2*
X35223D1*
X14309Y1818D2*
X18517D1*
X19908D2*
X28590D1*
X30464D2*
X35223D1*
X14309Y1522D2*
X18517D1*
X19908D2*
X28398D1*
X30661D2*
X35223D1*
X14309Y1225D2*
X18517D1*
X19908D2*
X28300D1*
X30755D2*
X35223D1*
X14309Y928D2*
X18517D1*
X19908D2*
X28285D1*
X30769D2*
X35223D1*
X14309Y632D2*
X18517D1*
X19908D2*
X28342D1*
X30713D2*
X35223D1*
X14309Y335D2*
X18517D1*
X19908D2*
X28487D1*
X30572D2*
X35223D1*
X14309Y38D2*
X18517D1*
X19908D2*
X28764D1*
X30291D2*
X35223D1*
X14309Y-258D2*
X18348D1*
X20077D2*
X28529D1*
X30525D2*
X35223D1*
X14309Y-555D2*
X18268D1*
X20152D2*
X28365D1*
X30694D2*
X35223D1*
X14309Y-852D2*
X18292D1*
X20128D2*
X28290D1*
X30764D2*
X35223D1*
X14309Y-1148D2*
X18423D1*
X19997D2*
X28290D1*
X30764D2*
X35223D1*
X14309Y-1445D2*
X18517D1*
X19908D2*
X28370D1*
X30685D2*
X35223D1*
X14309Y-1742D2*
X18517D1*
X19908D2*
X28539D1*
X30516D2*
X35223D1*
X14309Y-2038D2*
X18517D1*
X19908D2*
X28876D1*
X30178D2*
X35223D1*
X14309Y-2335D2*
X18517D1*
X19908D2*
X28281D1*
X30774D2*
X35223D1*
X14309Y-2632D2*
X18517D1*
X19908D2*
X28281D1*
X30774D2*
X35223D1*
X14309Y-2928D2*
X18517D1*
X19908D2*
X28281D1*
X30774D2*
X35223D1*
X14309Y-3225D2*
X18517D1*
X19908D2*
X28281D1*
X30774D2*
X35223D1*
X14309Y-3522D2*
X18517D1*
X19908D2*
X28281D1*
X30774D2*
X35223D1*
X14309Y-3818D2*
X18517D1*
X19908D2*
X28281D1*
X30774D2*
X35223D1*
X14309Y-4115D2*
X18517D1*
X19908D2*
X28281D1*
X30774D2*
X35223D1*
X14309Y-4412D2*
X18517D1*
X19908D2*
X28281D1*
X30774D2*
X31956D1*
X32522D2*
X35223D1*
X14309Y-4708D2*
X18517D1*
X19908D2*
X31089D1*
X33385D2*
X35223D1*
X14309Y-5005D2*
X18517D1*
X19908D2*
X30704D1*
X33774D2*
X35223D1*
X14309Y-5302D2*
X18517D1*
X19908D2*
X30446D1*
X34027D2*
X35223D1*
X14309Y-5598D2*
X18517D1*
X19908D2*
X30268D1*
X34205D2*
X35223D1*
X14309Y-5895D2*
X18517D1*
X20044D2*
X30146D1*
X34327D2*
X35223D1*
X14309Y-6192D2*
X18535D1*
X20339D2*
X30076D1*
X34402D2*
X35223D1*
X14309Y-6488D2*
X14884D1*
X16228D2*
X18695D1*
X21310D2*
X30043D1*
X34430D2*
X35223D1*
X14309Y-6785D2*
X14579D1*
X16538D2*
X18990D1*
X21619D2*
X30053D1*
X34420D2*
X35223D1*
X16688Y-7082D2*
X19285D1*
X21769D2*
X30104D1*
X34369D2*
X35223D1*
X16749Y-7378D2*
X19445D1*
X21830D2*
X30203D1*
X34275D2*
X35223D1*
X16735Y-7675D2*
X19464D1*
X21811D2*
X30348D1*
X34125D2*
X35223D1*
X14309Y-7972D2*
X14481D1*
X16636D2*
X19557D1*
X21717D2*
X30564D1*
X33914D2*
X35223D1*
X14309Y-8268D2*
X14687D1*
X16430D2*
X19768D1*
X21506D2*
X30873D1*
X33600D2*
X35223D1*
X14309Y-8565D2*
X15151D1*
X15961D2*
X20232D1*
X21042D2*
X31384D1*
X33094D2*
X35223D1*
X14309Y-8862D2*
X35223D1*
X14309Y-9158D2*
X35223D1*
X14309Y-9455D2*
X35223D1*
X14309Y-9752D2*
X35223D1*
X14309Y-10048D2*
X35223D1*
X14309Y-10345D2*
X35223D1*
X14309Y-10642D2*
X35223D1*
X14309Y-10938D2*
X35223D1*
X14309Y-11235D2*
X35223D1*
X14309Y-11532D2*
X24217D1*
X26217D2*
X35223D1*
X14309Y-11828D2*
X23664D1*
X26770D2*
X35223D1*
X14309Y-12125D2*
X23312D1*
X27122D2*
X35223D1*
X14309Y-12422D2*
X23054D1*
X27380D2*
X35223D1*
X14309Y-12718D2*
X22867D1*
X27567D2*
X35223D1*
X14309Y-13015D2*
X22726D1*
X27708D2*
X35223D1*
X14309Y-13312D2*
X22623D1*
X27811D2*
X35223D1*
X14309Y-13608D2*
X22562D1*
X27872D2*
X35223D1*
X14309Y-13905D2*
X22534D1*
X27900D2*
X35223D1*
X14309Y-14202D2*
X22543D1*
X27891D2*
X35223D1*
X14309Y-14498D2*
X22581D1*
X27853D2*
X35223D1*
X14309Y-14795D2*
X22656D1*
X27778D2*
X35223D1*
X14309Y-15092D2*
X22768D1*
X27666D2*
X35223D1*
X14309Y-15388D2*
X22928D1*
X27506D2*
X35223D1*
X14309Y-15685D2*
X23139D1*
X27295D2*
X35223D1*
X14309Y-15982D2*
X23420D1*
X27014D2*
X35223D1*
X14309Y-16278D2*
X23828D1*
X26606D2*
X35223D1*
X14309Y-16575D2*
X24545D1*
X25889D2*
X35223D1*
X14309Y-16872D2*
X35223D1*
X14309Y-17168D2*
X35223D1*
X14309Y-17465D2*
X35223D1*
X14309Y-17762D2*
X35223D1*
X14309Y-18058D2*
X35223D1*
X14309Y-18355D2*
X35223D1*
X14309Y-18652D2*
X35223D1*
X14309Y-18948D2*
X35223D1*
X14309Y-19245D2*
X35223D1*
X14309Y-19542D2*
X35223D1*
X14309Y-19838D2*
X35223D1*
X14309Y-20135D2*
X35223D1*
X14309Y-20432D2*
X35223D1*
X14309Y-20728D2*
X35223D1*
X27871Y13841D2*
X27837Y13543D1*
X27770Y13251D1*
X27670Y12968D1*
X27539Y12699D1*
X27379Y12445D1*
X27190Y12212D1*
X26977Y12001D1*
X26741Y11816D1*
X26486Y11658D1*
X26215Y11531D1*
X25931Y11434D1*
X25638Y11370D1*
X25340Y11340D1*
X25040Y11344D1*
X24742Y11381D1*
X24451Y11452D1*
X24170Y11555D1*
X23901Y11690D1*
X23650Y11853D1*
X23419Y12044D1*
X23211Y12260D1*
X23029Y12498D1*
X22874Y12755D1*
X22750Y13028D1*
X22657Y13313D1*
X22597Y13607D1*
X22570Y13905D1*
X22577Y14205D1*
X22618Y14502D1*
X22693Y14793D1*
X22799Y15073D1*
X22937Y15339D1*
X23103Y15589D1*
X23297Y15817D1*
X23516Y16023D1*
X23756Y16202D1*
X24015Y16354D1*
X24289Y16475D1*
X24575Y16564D1*
X24869Y16621D1*
X25168Y16644D1*
X25468Y16633D1*
X25765Y16588D1*
X26054Y16510D1*
X26333Y16400D1*
X26598Y16260D1*
X26845Y16090D1*
X27072Y15894D1*
X27274Y15673D1*
X27451Y15430D1*
X27599Y15170D1*
X27717Y14894D1*
X27803Y14607D1*
X27856Y14312D1*
X27875Y13991D1*
X27871Y13841D1*
X27866Y-14151D2*
X27832Y-14449D1*
X27765Y-14741D1*
X27665Y-15024D1*
X27534Y-15293D1*
X27374Y-15547D1*
X27185Y-15780D1*
X26972Y-15991D1*
X26736Y-16176D1*
X26481Y-16334D1*
X26210Y-16462D1*
X25926Y-16558D1*
X25633Y-16622D1*
X25335Y-16652D1*
X25035Y-16648D1*
X24738Y-16611D1*
X24446Y-16540D1*
X24165Y-16437D1*
X23897Y-16302D1*
X23645Y-16139D1*
X23414Y-15948D1*
X23206Y-15732D1*
X23024Y-15494D1*
X22869Y-15237D1*
X22745Y-14964D1*
X22652Y-14679D1*
X22592Y-14385D1*
X22565Y-14087D1*
X22572Y-13787D1*
X22613Y-13490D1*
X22688Y-13199D1*
X22794Y-12919D1*
X22932Y-12653D1*
X23098Y-12404D1*
X23292Y-12175D1*
X23511Y-11969D1*
X23751Y-11790D1*
X24010Y-11638D1*
X24284Y-11517D1*
X24570Y-11428D1*
X24865Y-11371D1*
X25163Y-11348D1*
X25463Y-11359D1*
X25760Y-11404D1*
X26049Y-11482D1*
X26328Y-11592D1*
X26593Y-11732D1*
X26840Y-11902D1*
X27067Y-12098D1*
X27269Y-12319D1*
X27446Y-12562D1*
X27594Y-12822D1*
X27712Y-13098D1*
X27798Y-13385D1*
X27851Y-13680D1*
X27870Y-14001D1*
X27866Y-14151D1*
X28462Y-2277D2*
X30744D1*
Y-4709D1*
X28311D1*
Y-2277D1*
X28462D1*
X30734Y-1142D2*
X30707Y-1289D1*
X30661Y-1432D1*
X30598Y-1568D1*
X30519Y-1696D1*
X30425Y-1813D1*
X30318Y-1917D1*
X30198Y-2007D1*
X30068Y-2082D1*
X29930Y-2140D1*
X29786Y-2181D1*
X29637Y-2204D1*
X29488Y-2208D1*
X29338Y-2194D1*
X29192Y-2161D1*
X29051Y-2111D1*
X28917Y-2044D1*
X28792Y-1961D1*
X28678Y-1863D1*
X28578Y-1752D1*
X28492Y-1629D1*
X28421Y-1497D1*
X28367Y-1357D1*
X28331Y-1211D1*
X28314Y-1063D1*
Y-913D1*
X28333Y-764D1*
X28370Y-619D1*
X28425Y-479D1*
X28497Y-348D1*
X28584Y-226D1*
X28685Y-115D1*
X28835Y5D1*
X28678Y137D1*
X28578Y248D1*
X28492Y371D1*
X28421Y503D1*
X28367Y643D1*
X28331Y789D1*
X28314Y937D1*
Y1087D1*
X28333Y1236D1*
X28370Y1381D1*
X28425Y1521D1*
X28497Y1652D1*
X28584Y1774D1*
X28685Y1885D1*
X28800Y1982D1*
X28925Y2064D1*
X29060Y2130D1*
X29201Y2179D1*
X29348Y2210D1*
X29497Y2223D1*
X29647Y2218D1*
X29795Y2194D1*
X29939Y2152D1*
X30077Y2092D1*
X30206Y2017D1*
X30325Y1925D1*
X30432Y1820D1*
X30525Y1703D1*
X30603Y1575D1*
X30665Y1438D1*
X30709Y1295D1*
X30735Y1148D1*
X30744Y1008D1*
X30734Y858D1*
X30707Y711D1*
X30661Y568D1*
X30598Y432D1*
X30519Y304D1*
X30425Y187D1*
X30318Y83D1*
X30217Y7D1*
X30325Y-75D1*
X30432Y-180D1*
X30525Y-297D1*
X30603Y-425D1*
X30665Y-562D1*
X30709Y-705D1*
X30735Y-852D1*
X30744Y-992D1*
X30734Y-1142D1*
X30743Y3477D2*
X30725Y3299D1*
X30681Y3124D1*
X30612Y2958D1*
X30519Y2804D1*
X30405Y2666D1*
X30271Y2545D1*
X30121Y2446D1*
X29958Y2370D1*
X29786Y2319D1*
X29608Y2294D1*
X29428Y2296D1*
X29250Y2324D1*
X29078Y2377D1*
X28917Y2456D1*
X28768Y2558D1*
X28637Y2680D1*
X28524Y2820D1*
X28434Y2976D1*
X28367Y3143D1*
X28326Y3318D1*
X28312Y3497D1*
X28323Y3677D1*
X28361Y3853D1*
X28425Y4021D1*
X28513Y4178D1*
X28623Y4320D1*
X28753Y4445D1*
X28899Y4549D1*
X29060Y4630D1*
X29230Y4687D1*
X29407Y4718D1*
X29587Y4722D1*
X29766Y4700D1*
X29939Y4652D1*
X30103Y4579D1*
X30255Y4482D1*
X30391Y4364D1*
X30508Y4227D1*
X30603Y4075D1*
X30675Y3910D1*
X30722Y3736D1*
X30742Y3558D1*
X30743Y3477D1*
X34398Y-6712D2*
X34357Y-7009D1*
X34275Y-7298D1*
X34154Y-7572D1*
X33996Y-7827D1*
X33805Y-8057D1*
X33583Y-8260D1*
X33336Y-8429D1*
X33068Y-8563D1*
X32784Y-8658D1*
X32489Y-8714D1*
X32190Y-8728D1*
X31891Y-8701D1*
X31599Y-8632D1*
X31320Y-8524D1*
X31058Y-8379D1*
X30818Y-8199D1*
X30606Y-7987D1*
X30425Y-7748D1*
X30278Y-7487D1*
X30170Y-7207D1*
X30100Y-6916D1*
X30072Y-6617D1*
X30085Y-6318D1*
X30140Y-6023D1*
X30234Y-5738D1*
X30367Y-5470D1*
X30536Y-5222D1*
X30737Y-5000D1*
X30968Y-4808D1*
X31222Y-4649D1*
X31496Y-4527D1*
X31784Y-4445D1*
X32081Y-4402D1*
X32380Y-4401D1*
X32677Y-4442D1*
X32966Y-4523D1*
X33241Y-4643D1*
X33496Y-4800D1*
X33727Y-4990D1*
X33930Y-5211D1*
X34101Y-5458D1*
X34235Y-5725D1*
X34332Y-6009D1*
X34388Y-6304D1*
X34404Y-6562D1*
X34398Y-6712D1*
Y6428D2*
X34357Y6131D1*
X34275Y5842D1*
X34154Y5568D1*
X33996Y5313D1*
X33805Y5083D1*
X33583Y4880D1*
X33336Y4711D1*
X33068Y4577D1*
X32784Y4482D1*
X32489Y4426D1*
X32190Y4412D1*
X31891Y4439D1*
X31599Y4508D1*
X31320Y4616D1*
X31058Y4761D1*
X30818Y4941D1*
X30606Y5153D1*
X30425Y5392D1*
X30278Y5653D1*
X30170Y5933D1*
X30100Y6224D1*
X30072Y6523D1*
X30085Y6822D1*
X30140Y7117D1*
X30234Y7402D1*
X30367Y7670D1*
X30536Y7918D1*
X30737Y8140D1*
X30968Y8332D1*
X31222Y8491D1*
X31496Y8613D1*
X31784Y8695D1*
X32081Y8738D1*
X32380Y8739D1*
X32677Y8698D1*
X32966Y8617D1*
X33241Y8497D1*
X33496Y8340D1*
X33727Y8150D1*
X33930Y7929D1*
X34101Y7682D1*
X34235Y7414D1*
X34332Y7131D1*
X34388Y6836D1*
X34404Y6578D1*
X34398Y6428D1*
X16723Y-7491D2*
X16705Y-7670D1*
X16659Y-7844D1*
X16587Y-8009D1*
X16491Y-8161D1*
X16372Y-8296D1*
X16234Y-8411D1*
X16080Y-8504D1*
X15913Y-8572D1*
X15738Y-8613D1*
X15559Y-8627D1*
X15380Y-8614D1*
X15205Y-8573D1*
X15038Y-8505D1*
X14884Y-8413D1*
X14745Y-8298D1*
X14626Y-8163D1*
X14530Y-8012D1*
X14457Y-7847D1*
X14411Y-7673D1*
X14392Y-7494D1*
X14401Y-7315D1*
X14437Y-7139D1*
X14500Y-6970D1*
X14588Y-6813D1*
X14699Y-6672D1*
X14831Y-6549D1*
X14980Y-6449D1*
X15142Y-6372D1*
X15315Y-6321D1*
X15493Y-6297D1*
X15673Y-6301D1*
X15850Y-6332D1*
X16020Y-6391D1*
X16179Y-6475D1*
X16323Y-6582D1*
X16449Y-6710D1*
X16554Y-6856D1*
X16635Y-7017D1*
X16691Y-7188D1*
X16720Y-7365D1*
X16723Y-7491D1*
X21794Y-7611D2*
X21765Y-7758D1*
X21718Y-7900D1*
X21653Y-8035D1*
X21570Y-8161D1*
X21473Y-8275D1*
X21362Y-8375D1*
X21239Y-8460D1*
X21105Y-8529D1*
X20965Y-8580D1*
X20818Y-8613D1*
X20669Y-8627D1*
X20519Y-8621D1*
X20371Y-8596D1*
X20228Y-8553D1*
X20091Y-8491D1*
X19964Y-8413D1*
X19847Y-8319D1*
X19744Y-8210D1*
X19655Y-8089D1*
X19583Y-7958D1*
X19528Y-7819D1*
X19491Y-7673D1*
X19473Y-7524D1*
X19475Y-7374D1*
X19491Y-7258D1*
X18740Y-6505D1*
X18647Y-6388D1*
X18582Y-6253D1*
X18549Y-6103D1*
X18545Y-5285D1*
Y-1267D1*
X18417Y-1091D1*
X18353Y-956D1*
X18312Y-812D1*
X18295Y-663D1*
X18303Y-513D1*
X18335Y-367D1*
X18390Y-227D1*
X18468Y-99D1*
X18544Y-10D1*
X18545Y3813D1*
X18417Y3989D1*
X18353Y4124D1*
X18312Y4268D1*
X18295Y4417D1*
X18303Y4567D1*
X18335Y4713D1*
X18390Y4852D1*
X18468Y4981D1*
X18565Y5095D1*
X18680Y5191D1*
X18808Y5268D1*
X18948Y5323D1*
X19095Y5354D1*
X19244Y5360D1*
X19393Y5343D1*
X19537Y5301D1*
X19672Y5236D1*
X19795Y5151D1*
X19902Y5046D1*
X19991Y4925D1*
X20059Y4792D1*
X20104Y4649D1*
X20127Y4445D1*
X20114Y4296D1*
X20078Y4150D1*
X20018Y4013D1*
X19937Y3887D1*
X19877Y3821D1*
Y-3D1*
X19991Y-155D1*
X20059Y-288D1*
X20104Y-431D1*
X20127Y-635D1*
X20114Y-784D1*
X20078Y-930D1*
X20018Y-1067D1*
X19937Y-1193D1*
X19877Y-1259D1*
Y-5758D1*
X20434Y-6316D1*
X20543Y-6299D1*
X20693Y-6297D1*
X20842Y-6313D1*
X20987Y-6349D1*
X21127Y-6403D1*
X21259Y-6475D1*
X21380Y-6562D1*
X21490Y-6665D1*
X21585Y-6781D1*
X21664Y-6908D1*
X21726Y-7044D1*
X21771Y-7188D1*
X21797Y-7335D1*
X21803Y-7461D1*
X21794Y-7611D1*
X18544Y-1259D2*
X18417Y-1091D1*
X18353Y-956D1*
X18312Y-812D1*
X18295Y-663D1*
X18303Y-513D1*
X18335Y-367D1*
X18390Y-227D1*
X18468Y-99D1*
X18544Y-10D1*
X19879Y-11D2*
X19991Y-155D1*
X20059Y-288D1*
X20104Y-431D1*
X20127Y-635D1*
X20114Y-784D1*
X20078Y-930D1*
X20018Y-1067D1*
X19937Y-1193D1*
X19877Y-1259D1*
X35251Y-20655D2*
Y20805D1*
X14279D1*
Y-20805D1*
X35251D1*
Y-20655D1*
X29528Y4723D2*
D17*
Y2292D1*
X28312Y3508D2*
X30743D1*
X15557Y-6296D2*
Y-8627D1*
X14392Y-7461D2*
X16723D1*
G36*
X-4878Y-1576D2*
Y-964D1*
X-4434Y-470D1*
X-3822D1*
X-3378Y-964D1*
Y-1576D1*
X-3822Y-2070D1*
X-4434D1*
X-4878Y-1576D1*
G37*
D25*
X-4128Y1230D3*
X-6128D3*
Y-1270D3*
D26*
X-8838Y6000D3*
Y-6040D3*
D27*
X29527Y-3492D3*
D28*
Y-992D3*
Y1008D3*
Y3508D3*
D29*
X32238Y-6562D3*
Y6578D3*
D31*
X5398Y-7461D3*
D32*
X7938D3*
X15557D3*
X20637D3*
M02*
